(export (version D)
  (design
    (source /home/riton/projects/esp32-sprinkle-timer/kicad/esp32-sprinkle-timer.sch)
    (date "mar. 24 août 2021 11:02:02 CEST")
    (tool "Eeschema 4.0.7-e2-6376~61~ubuntu18.04.1")
    (sheet (number 1) (name /) (tstamps /)
      (title_block
        (title)
        (company)
        (rev)
        (date)
        (source esp32-sprinkle-timer.sch)
        (comment (number 1) (value ""))
        (comment (number 2) (value ""))
        (comment (number 3) (value ""))
        (comment (number 4) (value "")))))
  (components
    (comp (ref P2)
      (value POWER)
      (footprint myConnectors:NINIGI_NS25-W2K)
      (libsource (lib esp32-sprinkle-timer-cache) (part CONN_01X02))
      (sheetpath (names /) (tstamps /))
      (tstamp 60EC07D8))
    (comp (ref U2)
      (value SSD1306-I2C)
      (footprint myDisplays:SSD1306-128x64-I2C)
      (libsource (lib my-displays) (part SSD1306-I2C))
      (sheetpath (names /) (tstamps /))
      (tstamp 60EC0854))
    (comp (ref U1)
      (value ESP32-DEVKIT-C)
      (footprint myMicroControllers:ESP32-DEVKIT-C)
      (libsource (lib my-microcontrollers) (part ESP32-DEVKIT-C))
      (sheetpath (names /) (tstamps /))
      (tstamp 60EC0CAD))
    (comp (ref P3)
      (value FLOW)
      (footprint myConnectors:JST_XH_S3B-XH-A-1_1x03_P2.50mm_Horizontal)
      (libsource (lib esp32-sprinkle-timer-cache) (part CONN_01X03))
      (sheetpath (names /) (tstamps /))
      (tstamp 60EC0A59))
    (comp (ref R4)
      (value 10K)
      (footprint Resistors_ThroughHole:Resistor_Horizontal_RM10mm)
      (libsource (lib device) (part R))
      (sheetpath (names /) (tstamps /))
      (tstamp 60EC0D44))
    (comp (ref R6)
      (value 18K)
      (footprint Resistors_ThroughHole:Resistor_Horizontal_RM10mm)
      (libsource (lib device) (part R))
      (sheetpath (names /) (tstamps /))
      (tstamp 60EC0DAB))
    (comp (ref P1)
      (value MOISTURE)
      (footprint myConnectors:JST_XH_S3B-XH-A-1_1x03_P2.50mm_Horizontal)
      (libsource (lib esp32-sprinkle-timer-cache) (part CONN_01X03))
      (sheetpath (names /) (tstamps /))
      (tstamp 60EC126E))
    (comp (ref R3)
      (value 1K)
      (footprint Resistors_ThroughHole:Resistor_Horizontal_RM10mm)
      (libsource (lib device) (part R))
      (sheetpath (names /) (tstamps /))
      (tstamp 60EC1383))
    (comp (ref R5)
      (value 390)
      (footprint Resistors_ThroughHole:Resistor_Horizontal_RM10mm)
      (libsource (lib device) (part R))
      (sheetpath (names /) (tstamps /))
      (tstamp 60EC162B))
    (comp (ref D1)
      (value GREEN)
      (footprint LEDs:LED-3MM)
      (libsource (lib esp32-sprinkle-timer-cache) (part Led_Small))
      (sheetpath (names /) (tstamps /))
      (tstamp 60EC18C6))
    (comp (ref R1)
      (value 1K)
      (footprint Resistors_ThroughHole:Resistor_Horizontal_RM10mm)
      (libsource (lib device) (part R))
      (sheetpath (names /) (tstamps /))
      (tstamp 60EC198A))
    (comp (ref R2)
      (value 1K)
      (footprint Resistors_ThroughHole:Resistor_Horizontal_RM10mm)
      (libsource (lib device) (part R))
      (sheetpath (names /) (tstamps /))
      (tstamp 60EC1A1A))
    (comp (ref D2)
      (value RED)
      (footprint LEDs:LED-3MM)
      (libsource (lib esp32-sprinkle-timer-cache) (part Led_Small))
      (sheetpath (names /) (tstamps /))
      (tstamp 60EC1A55))
    (comp (ref P5)
      (value I2C)
      (footprint myConnectors:JST_XH_S4B-XH-A-1_1x04_P2.50mm_Horizontal)
      (libsource (lib esp32-sprinkle-timer-cache) (part CONN_01X04))
      (sheetpath (names /) (tstamps /))
      (tstamp 60EC1FDE))
    (comp (ref U3)
      (value MP1584-MODULE)
      (footprint myPowerSupplies:MP1584-FIXED-MODULE)
      (libsource (lib my-power-supplies) (part MP1584-MODULE))
      (sheetpath (names /) (tstamps /))
      (tstamp 60EC3C92))
    (comp (ref SW1)
      (value MANUAL)
      (footprint mySwitches:SW_PUSH_6mm_H13mm)
      (libsource (lib my-switches) (part SW_SPST))
      (sheetpath (names /) (tstamps /))
      (tstamp 6117AFF9))
    (comp (ref SW2)
      (value FUNCTION)
      (footprint mySwitches:SW_PUSH_6mm_H13mm)
      (libsource (lib my-switches) (part SW_SPST))
      (sheetpath (names /) (tstamps /))
      (tstamp 6117B10C))
    (comp (ref J1)
      (value VALVES)
      (footprint Pin_Headers:Pin_Header_Angled_1x15_Pitch2.54mm)
      (libsource (lib conn) (part Conn_01x15))
      (sheetpath (names /) (tstamps /))
      (tstamp 6124B94A)))
  (libparts
    (libpart (lib esp32-sprinkle-timer-cache) (part CONN_01X02)
      (footprints
        (fp Pin_Header_Straight_1X02)
        (fp Pin_Header_Angled_1X02)
        (fp Socket_Strip_Straight_1X02)
        (fp Socket_Strip_Angled_1X02))
      (fields
        (field (name Reference) P)
        (field (name Value) CONN_01X02))
      (pins
        (pin (num 1) (name P1) (type passive))
        (pin (num 2) (name P2) (type passive))))
    (libpart (lib esp32-sprinkle-timer-cache) (part CONN_01X03)
      (footprints
        (fp Pin_Header_Straight_1X03)
        (fp Pin_Header_Angled_1X03)
        (fp Socket_Strip_Straight_1X03)
        (fp Socket_Strip_Angled_1X03))
      (fields
        (field (name Reference) P)
        (field (name Value) CONN_01X03))
      (pins
        (pin (num 1) (name P1) (type passive))
        (pin (num 2) (name P2) (type passive))
        (pin (num 3) (name P3) (type passive))))
    (libpart (lib esp32-sprinkle-timer-cache) (part CONN_01X04)
      (footprints
        (fp Pin_Header_Straight_1X04)
        (fp Pin_Header_Angled_1X04)
        (fp Socket_Strip_Straight_1X04)
        (fp Socket_Strip_Angled_1X04))
      (fields
        (field (name Reference) P)
        (field (name Value) CONN_01X04))
      (pins
        (pin (num 1) (name P1) (type passive))
        (pin (num 2) (name P2) (type passive))
        (pin (num 3) (name P3) (type passive))
        (pin (num 4) (name P4) (type passive))))
    (libpart (lib conn) (part Conn_01x15)
      (description "Generic connector, single row, 01x15")
      (docs ~)
      (footprints
        (fp Connector*:*_??x*mm*)
        (fp Connector*:*1x??x*mm*)
        (fp Pin?Header?Straight?1X*)
        (fp Pin?Header?Angled?1X*)
        (fp Socket?Strip?Straight?1X*)
        (fp Socket?Strip?Angled?1X*))
      (fields
        (field (name Reference) J)
        (field (name Value) Conn_01x15))
      (pins
        (pin (num 1) (name Pin_1) (type passive))
        (pin (num 2) (name Pin_2) (type passive))
        (pin (num 3) (name Pin_3) (type passive))
        (pin (num 4) (name Pin_4) (type passive))
        (pin (num 5) (name Pin_5) (type passive))
        (pin (num 6) (name Pin_6) (type passive))
        (pin (num 7) (name Pin_7) (type passive))
        (pin (num 8) (name Pin_8) (type passive))
        (pin (num 9) (name Pin_9) (type passive))
        (pin (num 10) (name Pin_10) (type passive))
        (pin (num 11) (name Pin_11) (type passive))
        (pin (num 12) (name Pin_12) (type passive))
        (pin (num 13) (name Pin_13) (type passive))
        (pin (num 14) (name Pin_14) (type passive))
        (pin (num 15) (name Pin_15) (type passive))))
    (libpart (lib my-microcontrollers) (part ESP32-DEVKIT-C)
      (fields
        (field (name Reference) U)
        (field (name Value) ESP32-DEVKIT-C))
      (pins
        (pin (num 1) (name 3.3V) (type input))
        (pin (num 2) (name EN) (type input))
        (pin (num 3) (name SVP) (type input))
        (pin (num 4) (name SVN) (type input))
        (pin (num 5) (name GPIO34) (type input))
        (pin (num 6) (name GPIO35) (type input))
        (pin (num 7) (name GPIO32) (type input))
        (pin (num 8) (name GPIO33) (type input))
        (pin (num 9) (name GPIO25) (type input))
        (pin (num 10) (name GPIO26) (type input))
        (pin (num 11) (name GPIO27) (type input))
        (pin (num 12) (name GPIO14) (type input))
        (pin (num 13) (name GPIO12) (type input))
        (pin (num 14) (name GND) (type input))
        (pin (num 15) (name GPIO13) (type input))
        (pin (num 16) (name SD2) (type input))
        (pin (num 17) (name SD3) (type input))
        (pin (num 18) (name CMD) (type input))
        (pin (num 19) (name 5V) (type input))
        (pin (num 20) (name CLK) (type input))
        (pin (num 21) (name SD0) (type input))
        (pin (num 22) (name SD1) (type input))
        (pin (num 23) (name GPIO15) (type input))
        (pin (num 24) (name GPIO2) (type input))
        (pin (num 25) (name GPIO0) (type input))
        (pin (num 26) (name GPIO4) (type input))
        (pin (num 27) (name GPIO16) (type input))
        (pin (num 28) (name GPIO17) (type input))
        (pin (num 29) (name GPIO5) (type input))
        (pin (num 30) (name GPIO18) (type input))
        (pin (num 31) (name GPIO19) (type input))
        (pin (num 32) (name GND) (type input))
        (pin (num 33) (name GPIO21) (type input))
        (pin (num 34) (name RXD0) (type input))
        (pin (num 35) (name TXD0) (type input))
        (pin (num 36) (name GPIO22) (type input))
        (pin (num 37) (name GPIO23) (type input))
        (pin (num 38) (name GND) (type input))))
    (libpart (lib esp32-sprinkle-timer-cache) (part Led_Small)
      (footprints
        (fp CP*)
        (fp SM*))
      (fields
        (field (name Reference) D)
        (field (name Value) Led_Small))
      (pins
        (pin (num 1) (name K) (type passive))
        (pin (num 2) (name A) (type passive))))
    (libpart (lib my-power-supplies) (part MP1584-MODULE)
      (description "MP1584 adjustable module board")
      (fields
        (field (name Reference) U)
        (field (name Value) MP1584-MODULE))
      (pins
        (pin (num 1) (name +Vin) (type input))
        (pin (num 2) (name -Vin) (type input))
        (pin (num 3) (name -Vout) (type output))
        (pin (num 4) (name +Vout) (type output))))
    (libpart (lib device) (part R)
      (description Resistor)
      (footprints
        (fp R_*)
        (fp R_*))
      (fields
        (field (name Reference) R)
        (field (name Value) R))
      (pins
        (pin (num 1) (name ~) (type passive))
        (pin (num 2) (name ~) (type passive))))
    (libpart (lib my-displays) (part SSD1306-I2C)
      (description "SSD1306 OLED display module")
      (fields
        (field (name Reference) U)
        (field (name Value) SSD1306-I2C))
      (pins
        (pin (num 1) (name GND) (type input))
        (pin (num 2) (name 3.3V) (type input))
        (pin (num 3) (name SCL) (type input))
        (pin (num 4) (name SDA) (type input))))
    (libpart (lib my-switches) (part SW_SPST)
      (description "Switch, dual pole double throw, separate symbols")
      (footprints
        (fp SW*DPDT*))
      (fields
        (field (name Reference) SW)
        (field (name Value) SW_SPST))
      (pins
        (pin (num 1) (name B) (type passive))
        (pin (num 2) (name C) (type passive)))))
  (libraries
    (library (logical device)
      (uri /usr/share/kicad/library/device.lib))
    (library (logical conn)
      (uri /usr/share/kicad/library/conn.lib))
    (library (logical my-microcontrollers)
      (uri /mnt/sdc1/riton/kicad/library/my-microcontrollers.lib))
    (library (logical my-displays)
      (uri /mnt/sdc1/riton/kicad/library/my-displays.lib))
    (library (logical my-power-supplies)
      (uri /home/riton/kicad/library/my-power-supplies.lib))
    (library (logical esp32-sprinkle-timer-cache)
      (uri /home/riton/projects/esp32-sprinkle-timer/kicad/esp32-sprinkle-timer-cache.lib))
    (library (logical my-switches)
      (uri /home/riton/kicad/library/my-switches.lib)))
  (nets
    (net (code 1) (name "Net-(D1-Pad2)")
      (node (ref R1) (pin 1))
      (node (ref D1) (pin 2)))
    (net (code 2) (name "Net-(D2-Pad2)")
      (node (ref R2) (pin 1))
      (node (ref D2) (pin 2)))
    (net (code 3) (name "Net-(R3-Pad1)")
      (node (ref R5) (pin 2))
      (node (ref R3) (pin 1))
      (node (ref U1) (pin 3)))
    (net (code 4) (name "Net-(P1-Pad2)")
      (node (ref P1) (pin 2))
      (node (ref R3) (pin 2)))
    (net (code 5) (name "Net-(R4-Pad1)")
      (node (ref R6) (pin 2))
      (node (ref U1) (pin 4))
      (node (ref R4) (pin 1)))
    (net (code 6) (name "Net-(D2-Pad1)")
      (node (ref U1) (pin 7))
      (node (ref D2) (pin 1)))
    (net (code 7) (name "Net-(D1-Pad1)")
      (node (ref U1) (pin 8))
      (node (ref D1) (pin 1)))
    (net (code 8) (name "Net-(J1-Pad5)")
      (node (ref J1) (pin 5))
      (node (ref U1) (pin 12)))
    (net (code 9) (name "Net-(J1-Pad8)")
      (node (ref J1) (pin 8))
      (node (ref U1) (pin 28)))
    (net (code 10) (name "Net-(J1-Pad7)")
      (node (ref U1) (pin 27))
      (node (ref J1) (pin 7)))
    (net (code 11) (name "Net-(J1-Pad6)")
      (node (ref U1) (pin 23))
      (node (ref J1) (pin 6)))
    (net (code 12) (name "Net-(J1-Pad9)")
      (node (ref U1) (pin 30))
      (node (ref J1) (pin 9)))
    (net (code 13) (name "Net-(J1-Pad10)")
      (node (ref J1) (pin 10))
      (node (ref U1) (pin 31)))
    (net (code 14) (name "Net-(SW2-Pad2)")
      (node (ref SW2) (pin 2))
      (node (ref U1) (pin 6)))
    (net (code 15) (name +5V)
      (node (ref U3) (pin 4))
      (node (ref P3) (pin 1))
      (node (ref U1) (pin 19)))
    (net (code 16) (name "Net-(P3-Pad2)")
      (node (ref R4) (pin 2))
      (node (ref P3) (pin 2)))
    (net (code 17) (name "Net-(J1-Pad14)")
      (node (ref J1) (pin 14))
      (node (ref U1) (pin 9)))
    (net (code 18) (name "Net-(J1-Pad2)")
      (node (ref J1) (pin 2))
      (node (ref U1) (pin 26)))
    (net (code 19) (name "Net-(P2-Pad2)")
      (node (ref U3) (pin 1))
      (node (ref P2) (pin 2)))
    (net (code 20) (name "Net-(J1-Pad12)")
      (node (ref U1) (pin 11))
      (node (ref J1) (pin 12)))
    (net (code 21) (name "Net-(J1-Pad13)")
      (node (ref U1) (pin 10))
      (node (ref J1) (pin 13)))
    (net (code 22) (name "Net-(J1-Pad11)")
      (node (ref U1) (pin 37))
      (node (ref J1) (pin 11)))
    (net (code 23) (name "Net-(SW1-Pad2)")
      (node (ref SW1) (pin 2))
      (node (ref U1) (pin 5)))
    (net (code 24) (name GND)
      (node (ref P3) (pin 3))
      (node (ref R5) (pin 1))
      (node (ref P1) (pin 3))
      (node (ref P2) (pin 1))
      (node (ref P5) (pin 1))
      (node (ref SW1) (pin 1))
      (node (ref U1) (pin 38))
      (node (ref U3) (pin 2))
      (node (ref U3) (pin 3))
      (node (ref U2) (pin 1))
      (node (ref SW2) (pin 1))
      (node (ref U1) (pin 14))
      (node (ref J1) (pin 1))
      (node (ref R6) (pin 1)))
    (net (code 25) (name "Net-(J1-Pad3)")
      (node (ref J1) (pin 3))
      (node (ref U1) (pin 29)))
    (net (code 26) (name "Net-(U1-Pad18)")
      (node (ref U1) (pin 18)))
    (net (code 27) (name "Net-(U1-Pad17)")
      (node (ref U1) (pin 17)))
    (net (code 28) (name "Net-(U1-Pad16)")
      (node (ref U1) (pin 16)))
    (net (code 29) (name "Net-(U1-Pad20)")
      (node (ref U1) (pin 20)))
    (net (code 30) (name "Net-(U1-Pad2)")
      (node (ref U1) (pin 2)))
    (net (code 31) (name +3V3)
      (node (ref R1) (pin 2))
      (node (ref P5) (pin 4))
      (node (ref R2) (pin 2))
      (node (ref U2) (pin 2))
      (node (ref U1) (pin 1))
      (node (ref J1) (pin 15))
      (node (ref P1) (pin 1)))
    (net (code 32) (name "Net-(P5-Pad3)")
      (node (ref P5) (pin 3))
      (node (ref U1) (pin 36))
      (node (ref U2) (pin 3)))
    (net (code 33) (name "Net-(U1-Pad21)")
      (node (ref U1) (pin 21)))
    (net (code 34) (name "Net-(U1-Pad22)")
      (node (ref U1) (pin 22)))
    (net (code 35) (name "Net-(U1-Pad32)")
      (node (ref U1) (pin 32)))
    (net (code 36) (name "Net-(U1-Pad13)")
      (node (ref U1) (pin 13)))
    (net (code 37) (name "Net-(P5-Pad2)")
      (node (ref U1) (pin 33))
      (node (ref P5) (pin 2))
      (node (ref U2) (pin 4)))
    (net (code 38) (name "Net-(U1-Pad24)")
      (node (ref U1) (pin 24)))
    (net (code 39) (name "Net-(U1-Pad34)")
      (node (ref U1) (pin 34)))
    (net (code 40) (name "Net-(J1-Pad4)")
      (node (ref U1) (pin 15))
      (node (ref J1) (pin 4)))
    (net (code 41) (name "Net-(U1-Pad25)")
      (node (ref U1) (pin 25)))
    (net (code 42) (name "Net-(U1-Pad35)")
      (node (ref U1) (pin 35)))))