EESchema Schematic File Version 2
LIBS:power
LIBS:device
LIBS:transistors
LIBS:conn
LIBS:linear
LIBS:regul
LIBS:74xx
LIBS:cmos4000
LIBS:adc-dac
LIBS:memory
LIBS:xilinx
LIBS:microcontrollers
LIBS:dsp
LIBS:microchip
LIBS:analog_switches
LIBS:motorola
LIBS:texas
LIBS:intel
LIBS:audio
LIBS:interface
LIBS:digital-audio
LIBS:philips
LIBS:display
LIBS:cypress
LIBS:siliconi
LIBS:opto
LIBS:atmel
LIBS:contrib
LIBS:valves
LIBS:my-microcontrollers
LIBS:my-displays
LIBS:my-regulators
LIBS:my-power-supplies
LIBS:my-switches
LIBS:esp32-sprinkle-timer-cache
EELAYER 25 0
EELAYER END
$Descr A4 11693 8268
encoding utf-8
Sheet 1 1
Title ""
Date ""
Rev ""
Comp ""
Comment1 ""
Comment2 ""
Comment3 ""
Comment4 ""
$EndDescr
$Comp
L CONN_01X02 P2
U 1 1 60EC07D8
P 5250 5800
F 0 "P2" H 5250 5950 50  0000 C CNN
F 1 "POWER" V 5350 5800 50  0000 C CNN
F 2 "myConnectors:NINIGI_NS25-W2K" H 5250 5800 50  0001 C CNN
F 3 "" H 5250 5800 50  0000 C CNN
	1    5250 5800
	-1   0    0    1   
$EndComp
$Comp
L SSD1306-I2C U2
U 1 1 60EC0854
P 7550 3150
F 0 "U2" H 7675 3150 60  0000 C CNN
F 1 "SSD1306-I2C" H 7750 3300 60  0000 C CNN
F 2 "myDisplays:SSD1306-128x64-I2C" H 7575 3150 60  0001 C CNN
F 3 "" H 7575 3150 60  0000 C CNN
	1    7550 3150
	1    0    0    -1  
$EndComp
$Comp
L ESP32-DEVKIT-C U1
U 1 1 60EC0CAD
P 4900 3000
F 0 "U1" H 5575 3000 60  0000 C CNN
F 1 "ESP32-DEVKIT-C" H 5625 3150 60  0000 C CNN
F 2 "myMicroControllers:ESP32-DEVKIT-C" H 4900 3000 60  0001 C CNN
F 3 "" H 4900 3000 60  0000 C CNN
	1    4900 3000
	1    0    0    -1  
$EndComp
$Comp
L GND #PWR01
U 1 1 60EC05D8
P 6400 4900
F 0 "#PWR01" H 6400 4650 50  0001 C CNN
F 1 "GND" H 6400 4750 50  0000 C CNN
F 2 "" H 6400 4900 50  0000 C CNN
F 3 "" H 6400 4900 50  0000 C CNN
	1    6400 4900
	1    0    0    -1  
$EndComp
$Comp
L GND #PWR02
U 1 1 60EC0619
P 4800 4900
F 0 "#PWR02" H 4800 4650 50  0001 C CNN
F 1 "GND" H 4800 4750 50  0000 C CNN
F 2 "" H 4800 4900 50  0000 C CNN
F 3 "" H 4800 4900 50  0000 C CNN
	1    4800 4900
	1    0    0    -1  
$EndComp
$Comp
L GND #PWR03
U 1 1 60EC0666
P 7200 5000
F 0 "#PWR03" H 7200 4750 50  0001 C CNN
F 1 "GND" H 7200 4850 50  0000 C CNN
F 2 "" H 7200 5000 50  0000 C CNN
F 3 "" H 7200 5000 50  0000 C CNN
	1    7200 5000
	1    0    0    -1  
$EndComp
$Comp
L +5V #PWR04
U 1 1 60EC06EB
P 4650 4700
F 0 "#PWR04" H 4650 4550 50  0001 C CNN
F 1 "+5V" H 4650 4840 50  0000 C CNN
F 2 "" H 4650 4700 50  0000 C CNN
F 3 "" H 4650 4700 50  0000 C CNN
	1    4650 4700
	1    0    0    -1  
$EndComp
$Comp
L CONN_01X03 P3
U 1 1 60EC0A59
P 3700 5750
F 0 "P3" H 3700 5950 50  0000 C CNN
F 1 "FLOW" V 3800 5750 50  0000 C CNN
F 2 "myConnectors:JST_XH_S3B-XH-A-1_1x03_P2.50mm_Horizontal" H 3700 5750 50  0001 C CNN
F 3 "" H 3700 5750 50  0000 C CNN
	1    3700 5750
	-1   0    0    -1  
$EndComp
$Comp
L GND #PWR05
U 1 1 60EC0B47
P 4150 5950
F 0 "#PWR05" H 4150 5700 50  0001 C CNN
F 1 "GND" H 4150 5800 50  0000 C CNN
F 2 "" H 4150 5950 50  0000 C CNN
F 3 "" H 4150 5950 50  0000 C CNN
	1    4150 5950
	1    0    0    -1  
$EndComp
$Comp
L +3.3V #PWR06
U 1 1 60EC0BBF
P 4800 2900
F 0 "#PWR06" H 4800 2750 50  0001 C CNN
F 1 "+3.3V" H 4800 3040 50  0000 C CNN
F 2 "" H 4800 2900 50  0000 C CNN
F 3 "" H 4800 2900 50  0000 C CNN
	1    4800 2900
	1    0    0    -1  
$EndComp
$Comp
L +5V #PWR07
U 1 1 60EC0CF2
P 4150 5550
F 0 "#PWR07" H 4150 5400 50  0001 C CNN
F 1 "+5V" H 4150 5690 50  0000 C CNN
F 2 "" H 4150 5550 50  0000 C CNN
F 3 "" H 4150 5550 50  0000 C CNN
	1    4150 5550
	1    0    0    -1  
$EndComp
$Comp
L R R4
U 1 1 60EC0D44
P 4300 5750
F 0 "R4" V 4380 5750 50  0000 C CNN
F 1 "10K" V 4300 5750 50  0000 C CNN
F 2 "Resistors_ThroughHole:Resistor_Horizontal_RM10mm" V 4230 5750 50  0001 C CNN
F 3 "" H 4300 5750 50  0000 C CNN
	1    4300 5750
	0    1    1    0   
$EndComp
$Comp
L R R6
U 1 1 60EC0DAB
P 4550 6000
F 0 "R6" V 4630 6000 50  0000 C CNN
F 1 "18K" V 4550 6000 50  0000 C CNN
F 2 "Resistors_ThroughHole:Resistor_Horizontal_RM10mm" V 4480 6000 50  0001 C CNN
F 3 "" H 4550 6000 50  0000 C CNN
	1    4550 6000
	-1   0    0    1   
$EndComp
$Comp
L GND #PWR08
U 1 1 60EC1062
P 4550 6250
F 0 "#PWR08" H 4550 6000 50  0001 C CNN
F 1 "GND" H 4550 6100 50  0000 C CNN
F 2 "" H 4550 6250 50  0000 C CNN
F 3 "" H 4550 6250 50  0000 C CNN
	1    4550 6250
	1    0    0    -1  
$EndComp
$Comp
L CONN_01X03 P1
U 1 1 60EC126E
P 3850 2550
F 0 "P1" H 3850 2750 50  0000 C CNN
F 1 "MOISTURE" V 3950 2550 50  0000 C CNN
F 2 "myConnectors:JST_XH_S3B-XH-A-1_1x03_P2.50mm_Horizontal" H 3850 2550 50  0001 C CNN
F 3 "" H 3850 2550 50  0000 C CNN
	1    3850 2550
	-1   0    0    -1  
$EndComp
$Comp
L R R3
U 1 1 60EC1383
P 4300 2550
F 0 "R3" V 4380 2550 50  0000 C CNN
F 1 "1K" V 4300 2550 50  0000 C CNN
F 2 "Resistors_ThroughHole:Resistor_Horizontal_RM10mm" V 4230 2550 50  0001 C CNN
F 3 "" H 4300 2550 50  0000 C CNN
	1    4300 2550
	0    1    1    0   
$EndComp
$Comp
L GND #PWR09
U 1 1 60EC1522
P 4150 2750
F 0 "#PWR09" H 4150 2500 50  0001 C CNN
F 1 "GND" H 4150 2600 50  0000 C CNN
F 2 "" H 4150 2750 50  0000 C CNN
F 3 "" H 4150 2750 50  0000 C CNN
	1    4150 2750
	1    0    0    -1  
$EndComp
$Comp
L +3.3V #PWR010
U 1 1 60EC1548
P 4150 2350
F 0 "#PWR010" H 4150 2200 50  0001 C CNN
F 1 "+3.3V" H 4150 2490 50  0000 C CNN
F 2 "" H 4150 2350 50  0000 C CNN
F 3 "" H 4150 2350 50  0000 C CNN
	1    4150 2350
	1    0    0    -1  
$EndComp
$Comp
L R R5
U 1 1 60EC162B
P 4550 2800
F 0 "R5" V 4630 2800 50  0000 C CNN
F 1 "390" V 4550 2800 50  0000 C CNN
F 2 "Resistors_ThroughHole:Resistor_Horizontal_RM10mm" V 4480 2800 50  0001 C CNN
F 3 "" H 4550 2800 50  0000 C CNN
	1    4550 2800
	-1   0    0    1   
$EndComp
$Comp
L GND #PWR011
U 1 1 60EC1741
P 4550 3050
F 0 "#PWR011" H 4550 2800 50  0001 C CNN
F 1 "GND" H 4550 2900 50  0000 C CNN
F 2 "" H 4550 3050 50  0000 C CNN
F 3 "" H 4550 3050 50  0000 C CNN
	1    4550 3050
	1    0    0    -1  
$EndComp
$Comp
L Led_Small D1
U 1 1 60EC18C6
P 3500 4200
F 0 "D1" V 3650 4200 50  0000 L CNN
F 1 "GREEN" H 3350 4100 50  0000 L CNN
F 2 "LEDs:LED-3MM" V 3500 4200 50  0001 C CNN
F 3 "" V 3500 4200 50  0000 C CNN
	1    3500 4200
	0    -1   -1   0   
$EndComp
$Comp
L R R1
U 1 1 60EC198A
P 3500 3850
F 0 "R1" V 3580 3850 50  0000 C CNN
F 1 "1K" V 3500 3850 50  0000 C CNN
F 2 "Resistors_ThroughHole:Resistor_Horizontal_RM10mm" V 3430 3850 50  0001 C CNN
F 3 "" H 3500 3850 50  0000 C CNN
	1    3500 3850
	-1   0    0    1   
$EndComp
$Comp
L R R2
U 1 1 60EC1A1A
P 3700 3850
F 0 "R2" V 3780 3850 50  0000 C CNN
F 1 "1K" V 3700 3850 50  0000 C CNN
F 2 "Resistors_ThroughHole:Resistor_Horizontal_RM10mm" V 3630 3850 50  0001 C CNN
F 3 "" H 3700 3850 50  0000 C CNN
	1    3700 3850
	-1   0    0    1   
$EndComp
$Comp
L Led_Small D2
U 1 1 60EC1A55
P 3700 4200
F 0 "D2" V 3850 4100 50  0000 L CNN
F 1 "RED" H 3650 4100 50  0000 L CNN
F 2 "LEDs:LED-3MM" V 3700 4200 50  0001 C CNN
F 3 "" V 3700 4200 50  0000 C CNN
	1    3700 4200
	0    -1   -1   0   
$EndComp
$Comp
L +3.3V #PWR012
U 1 1 60EC1BD3
P 3600 3500
F 0 "#PWR012" H 3600 3350 50  0001 C CNN
F 1 "+3.3V" H 3600 3640 50  0000 C CNN
F 2 "" H 3600 3500 50  0000 C CNN
F 3 "" H 3600 3500 50  0000 C CNN
	1    3600 3500
	1    0    0    -1  
$EndComp
$Comp
L CONN_01X04 P5
U 1 1 60EC1FDE
P 7500 2550
F 0 "P5" H 7500 2800 50  0000 C CNN
F 1 "I2C" V 7600 2550 50  0000 C CNN
F 2 "myConnectors:JST_XH_S4B-XH-A-1_1x04_P2.50mm_Horizontal" H 7500 2550 50  0001 C CNN
F 3 "" H 7500 2550 50  0000 C CNN
	1    7500 2550
	1    0    0    1   
$EndComp
$Comp
L GND #PWR013
U 1 1 60EC2060
P 6700 3350
F 0 "#PWR013" H 6700 3100 50  0001 C CNN
F 1 "GND" H 6700 3200 50  0000 C CNN
F 2 "" H 6700 3350 50  0000 C CNN
F 3 "" H 6700 3350 50  0000 C CNN
	1    6700 3350
	1    0    0    -1  
$EndComp
$Comp
L +3.3V #PWR014
U 1 1 60EC239C
P 6800 2300
F 0 "#PWR014" H 6800 2150 50  0001 C CNN
F 1 "+3.3V" H 6800 2440 50  0000 C CNN
F 2 "" H 6800 2300 50  0000 C CNN
F 3 "" H 6800 2300 50  0000 C CNN
	1    6800 2300
	1    0    0    -1  
$EndComp
$Comp
L +5V #PWR015
U 1 1 60EC3AAD
P 7050 5600
F 0 "#PWR015" H 7050 5450 50  0001 C CNN
F 1 "+5V" H 7050 5740 50  0000 C CNN
F 2 "" H 7050 5600 50  0000 C CNN
F 3 "" H 7050 5600 50  0000 C CNN
	1    7050 5600
	1    0    0    -1  
$EndComp
$Comp
L MP1584-MODULE U3
U 1 1 60EC3C92
P 6400 5800
F 0 "U3" H 6400 6050 60  0000 C CNN
F 1 "MP1584-MODULE" H 6000 5550 60  0000 L CNN
F 2 "myPowerSupplies:MP1584-FIXED-MODULE" H 6400 5800 60  0001 C CNN
F 3 "" H 6400 5800 60  0000 C CNN
	1    6400 5800
	1    0    0    -1  
$EndComp
$Comp
L GND #PWR016
U 1 1 60EC3EC8
P 5750 6000
F 0 "#PWR016" H 5750 5750 50  0001 C CNN
F 1 "GND" H 5750 5850 50  0000 C CNN
F 2 "" H 5750 6000 50  0000 C CNN
F 3 "" H 5750 6000 50  0000 C CNN
	1    5750 6000
	1    0    0    -1  
$EndComp
$Comp
L GND #PWR017
U 1 1 60EC3F94
P 7050 6000
F 0 "#PWR017" H 7050 5750 50  0001 C CNN
F 1 "GND" H 7050 5850 50  0000 C CNN
F 2 "" H 7050 6000 50  0000 C CNN
F 3 "" H 7050 6000 50  0000 C CNN
	1    7050 6000
	1    0    0    -1  
$EndComp
$Comp
L SW_SPST SW1
U 1 1 6117AFF9
P 3700 4700
F 0 "SW1" H 3700 4800 50  0000 C CNN
F 1 "MANUAL" H 3700 4600 50  0000 C CNN
F 2 "mySwitches:SW_PUSH_6mm_H13mm" H 3700 4700 50  0001 C CNN
F 3 "" H 3700 4700 50  0001 C CNN
	1    3700 4700
	1    0    0    -1  
$EndComp
$Comp
L SW_SPST SW2
U 1 1 6117B10C
P 3700 5050
F 0 "SW2" H 3700 5150 50  0000 C CNN
F 1 "FUNCTION" H 3700 4950 50  0000 C CNN
F 2 "mySwitches:SW_PUSH_6mm_H13mm" H 3700 5050 50  0001 C CNN
F 3 "" H 3700 5050 50  0001 C CNN
	1    3700 5050
	1    0    0    -1  
$EndComp
$Comp
L GND #PWR018
U 1 1 6117B579
P 3400 5150
F 0 "#PWR018" H 3400 4900 50  0001 C CNN
F 1 "GND" H 3400 5000 50  0000 C CNN
F 2 "" H 3400 5150 50  0000 C CNN
F 3 "" H 3400 5150 50  0000 C CNN
	1    3400 5150
	1    0    0    -1  
$EndComp
Wire Wire Line
	6700 2700 6700 3350
Wire Wire Line
	4800 2900 4800 3000
Wire Wire Line
	4800 3000 4900 3000
Wire Wire Line
	6950 3200 6600 3200
Wire Wire Line
	6600 2600 6600 3500
Wire Wire Line
	6600 3500 6300 3500
Wire Wire Line
	6400 4900 6400 3000
Wire Wire Line
	6400 3000 6300 3000
Wire Wire Line
	4800 4900 4800 4300
Wire Wire Line
	4800 4300 4900 4300
Wire Wire Line
	7200 4900 7200 5000
Wire Wire Line
	4650 4700 4650 4800
Wire Wire Line
	6550 3200 6300 3200
Wire Wire Line
	6550 2500 6550 3200
Wire Wire Line
	6550 3100 6950 3100
Wire Wire Line
	6300 4200 6500 4200
Wire Wire Line
	6500 4200 6500 4800
Wire Wire Line
	6550 4700 6550 3900
Wire Wire Line
	6550 3900 6300 3900
Wire Wire Line
	4900 4400 4500 4400
Wire Wire Line
	4500 4400 4500 5150
Wire Wire Line
	4500 5150 6650 5150
Wire Wire Line
	6650 5150 6650 4600
Wire Wire Line
	6650 4600 7300 4600
Wire Wire Line
	4900 4100 4400 4100
Wire Wire Line
	4400 4100 4400 5250
Wire Wire Line
	4400 5250 6700 5250
Wire Wire Line
	6700 5250 6700 4500
Wire Wire Line
	6700 4500 7300 4500
Wire Wire Line
	6300 4500 6600 4500
Wire Wire Line
	6600 4500 6600 4400
Wire Wire Line
	6600 4400 7300 4400
Wire Wire Line
	6300 4100 6600 4100
Wire Wire Line
	6600 4100 6600 4300
Wire Wire Line
	6600 4300 7300 4300
Wire Wire Line
	6300 4000 6650 4000
Wire Wire Line
	6650 4000 6650 4200
Wire Wire Line
	6650 4200 7300 4200
Wire Wire Line
	6300 3800 6700 3800
Wire Wire Line
	6700 3800 6700 4100
Wire Wire Line
	6700 4100 7300 4100
Wire Wire Line
	6300 3700 6750 3700
Wire Wire Line
	6750 3700 6750 4000
Wire Wire Line
	6750 4000 7300 4000
Wire Wire Line
	4200 3500 4200 5050
Wire Wire Line
	5450 5850 5550 5850
Wire Wire Line
	5550 5850 5550 5900
Wire Wire Line
	4150 5950 4150 5850
Wire Wire Line
	4150 5850 3900 5850
Wire Wire Line
	4150 5550 4150 5650
Wire Wire Line
	4150 5650 3900 5650
Wire Wire Line
	3900 5750 4150 5750
Wire Wire Line
	4450 5750 4550 5750
Wire Wire Line
	4550 3300 4550 5850
Wire Wire Line
	4550 6150 4550 6250
Connection ~ 4550 5750
Wire Wire Line
	4150 2350 4150 2450
Wire Wire Line
	4150 2450 4050 2450
Wire Wire Line
	4150 2550 4050 2550
Wire Wire Line
	4450 2550 4650 2550
Wire Wire Line
	4550 2550 4550 2650
Wire Wire Line
	4550 2950 4550 3050
Wire Wire Line
	4050 2650 4150 2650
Wire Wire Line
	4150 2650 4150 2750
Wire Wire Line
	4650 2550 4650 3200
Wire Wire Line
	4650 3200 4900 3200
Connection ~ 4550 2550
Wire Wire Line
	3700 4100 3700 4000
Wire Wire Line
	3500 4000 3500 4100
Wire Wire Line
	3600 3500 3600 3600
Wire Wire Line
	3500 3600 3700 3600
Wire Wire Line
	3500 3600 3500 3700
Wire Wire Line
	3700 3600 3700 3700
Connection ~ 3600 3600
Wire Wire Line
	3500 4300 3500 4450
Wire Wire Line
	3500 4450 4100 4450
Wire Wire Line
	4100 4450 4100 3700
Wire Wire Line
	4050 3600 4900 3600
Wire Wire Line
	4050 3600 4050 4400
Wire Wire Line
	4050 4400 3700 4400
Wire Wire Line
	3700 4400 3700 4300
Wire Wire Line
	7300 2600 6600 2600
Connection ~ 6600 3200
Wire Wire Line
	6550 2500 7300 2500
Connection ~ 6550 3100
Wire Wire Line
	6800 2300 6800 3500
Wire Wire Line
	6800 2400 7300 2400
Wire Wire Line
	6950 2900 6700 2900
Connection ~ 6700 2900
Wire Wire Line
	6800 3000 6950 3000
Connection ~ 6800 2400
Wire Wire Line
	7300 2700 6700 2700
Wire Wire Line
	4650 4800 4900 4800
Wire Wire Line
	7050 5700 7050 5600
Wire Wire Line
	7050 5700 6950 5700
Wire Wire Line
	5550 5900 5850 5900
Wire Wire Line
	5750 5900 5750 6000
Wire Wire Line
	6950 5900 7050 5900
Wire Wire Line
	7050 5900 7050 6000
Wire Wire Line
	6800 3900 7300 3900
Wire Wire Line
	6800 3650 6800 3900
Wire Wire Line
	6450 3650 6800 3650
Wire Wire Line
	6450 3100 6450 3650
Wire Wire Line
	6300 3100 6450 3100
Wire Wire Line
	3400 4700 3400 5150
Wire Wire Line
	3400 4700 3500 4700
Wire Wire Line
	3500 5050 3400 5050
Connection ~ 3400 5050
Wire Wire Line
	4200 5050 3900 5050
Wire Wire Line
	3900 4700 4150 4700
Wire Wire Line
	4150 4700 4150 3400
Wire Wire Line
	4150 3400 4900 3400
Wire Wire Line
	4200 3500 4900 3500
Wire Wire Line
	4100 3700 4900 3700
Wire Wire Line
	4350 4000 4350 5300
Wire Wire Line
	4350 5300 6900 5300
Wire Wire Line
	6900 5300 6900 3800
Wire Wire Line
	6950 3700 6950 5350
Wire Wire Line
	6950 5350 4300 5350
Wire Wire Line
	4300 5350 4300 3900
Wire Wire Line
	6950 3700 7300 3700
Wire Wire Line
	4350 4000 4900 4000
Wire Wire Line
	4300 3900 4900 3900
Wire Wire Line
	6900 3800 7300 3800
Connection ~ 5750 5900
Wire Wire Line
	5450 5750 5550 5750
Wire Wire Line
	5550 5750 5550 5700
Wire Wire Line
	5550 5700 5850 5700
Wire Wire Line
	4550 3300 4900 3300
Wire Wire Line
	6800 3500 7300 3500
Connection ~ 6800 3000
Wire Wire Line
	7300 3600 7000 3600
Wire Wire Line
	7000 3600 7000 5400
Wire Wire Line
	7000 5400 4250 5400
Wire Wire Line
	4250 5400 4250 3800
Wire Wire Line
	4250 3800 4900 3800
Wire Wire Line
	6550 4700 7300 4700
Wire Wire Line
	6500 4800 7300 4800
Wire Wire Line
	7200 4900 7300 4900
$Comp
L Conn_01x15 J1
U 1 1 6124B94A
P 7500 4200
F 0 "J1" H 7500 5000 50  0000 C CNN
F 1 "VALVES" V 7600 4200 50  0000 C CNN
F 2 "Pin_Headers:Pin_Header_Angled_1x15_Pitch2.54mm" H 7500 4200 50  0001 C CNN
F 3 "" H 7500 4200 50  0001 C CNN
	1    7500 4200
	1    0    0    1   
$EndComp
$EndSCHEMATC
